{
  "apiVersion": "tanka.dev/v1alpha1",
  "kind": "Environment",
  "metadata": {
    "name": "environments/kube-system"
  },
  "spec": {
    "apiServer": "https://tu.social:6443",
    "namespace": "kube-system",
    "injectLabels": true,
    "resourceDefaults": {},
    "expectVersions": {}
  }
}
