{
  "apiVersion": "tanka.dev/v1alpha1",
  "kind": "Environment",
  "metadata": {
    "name": "environments/tu.social/brawlstars"
  },
  "spec": {
    "apiServer": "https://tu.social:6443",
    "namespace": "brawlstars",
    "injectLabels": true,
    "resourceDefaults": {},
    "expectVersions": {}
  }
}
